%YAML 1.1
%TAG !u! tag:unity3d.com,2011:
--- !u!114 &11400000
MonoBehaviour:
  m_ObjectHideFlags: 0
  m_CorrespondingSourceObject: {fileID: 0}
  m_PrefabInstance: {fileID: 0}
  m_PrefabAsset: {fileID: 0}
  m_GameObject: {fileID: 0}
  m_Enabled: 1
  m_EditorHideFlags: 0
  m_Script: {fileID: 11500000, guid: c9a0c0234553479f933ada49e310ea26, type: 3}
  m_Name: PlaneSoundsConfig
  m_EditorClassIdentifier: 
  _accelerateHighPassFreq: 183.3
  _decelerateHighPassFreq: 375
  _motion:
    _volume: 20
    _sample: {fileID: 8300000, guid: 490672707b078da46ac89fd9bd395ea0, type: 3}
  _shoot:
    _volume: 1
    _sample: {fileID: 8300000, guid: 9ba6f02dec404c8489645b2169772964, type: 3}
  _explode:
    _volume: 20
    _sample: {fileID: 8300000, guid: aaf7928e5f485604f918a2cf0282b7c1, type: 3}
